[
   {
      "Income" : 53141,
      "County" : "Harris County, TX",
      "PPP" : 1.12359550561798,
      "Income PPP" : 59708.988764045
   },
   {
      "Income PPP" : 59708.988764045,
      "Income" : 121632,
      "County" : "New York County, NY",
      "PPP" : 0.335570469798658
   },
   {
      "Income" : 48638,
      "County" : "Dallas County, TX",
      "PPP" : 1.11111111111111,
      "Income PPP" : 54042.2222222222
   },
   {
      "County" : "Cook County, IL",
      "PPP" : 0.961538461538462,
      "Income" : 49661,
      "Income PPP" : 47750.9615384615
   },
   {
      "County" : "Middlesex County, NJ",
      "PPP" : 0.78125,
      "Income" : 52291,
      "Income PPP" : 40852.34375
   },
   {
      "Income PPP" : 27586.5030674847,
      "PPP" : 0.613496932515337,
      "County" : "Queens County, NY",
      "Income" : 44966
   },
   {
      "Income PPP" : 23503.3333333333,
      "PPP" : 0.555555555555556,
      "County" : "Kings County, NY",
      "Income" : 42306
   },
   {
      "Income PPP" : 23805.7971014493,
      "PPP" : 0.72463768115942,
      "County" : "Bronx County, NY",
      "Income" : 32852
   }
]
